Intercluster coverage and gaps review
…
## # A tibble: 4 x 3
##   admin1name_en admin3name_en admin4name_en
##   <chr>         <chr>         <chr>        
## 1 Aleppo        Al Bab        Al Bab       
## 2 Aleppo        Jandairis     Jandairis    
## 3 Aleppo        A'zaz         Azaz         
## 4 Idleb         Dana          Dana

The situation is strikingly similar for FSL: their top 10 communities
also fr, 49% of their beneficiary allocations, with their top 4
communities  Al Bab (C4126), Jandairis (C1426) and Azaz (C1202) in
Aleppo and Dana (C1564) in Idleb forming 30% of their beneficiary
frequencies.

## # A tibble: 564 x 4
##    admin4pcode beneficiaries pc_ben cum_pc
##    <chr>               <dbl>  <dbl>  <dbl>
##  1 C4126              744281 0.0878 0.0878
##  2 C1426              637173 0.0752 0.163 
##  3 C1202              625203 0.0738 0.237 
##  4 C1564              559592 0.0660 0.303 
##  5 C4140              377802 0.0446 0.347 
##  6 C4121              334513 0.0395 0.387 
##  7 C1366              265968 0.0314 0.418 
##  8 C4115              207927 0.0245 0.443 
##  9 C1209              197000 0.0232 0.466 
## 10 C3871              190943 0.0225 0.489 
## # i 554 more rows
…
